Income Inequality Before and After Taxes – TidyTuesday by Rodrigo
…
1.3 Load this week’s data

income_inequality_processed <- readr::read_csv('https://raw.githubusercontent.com/rfordatascience/tidytuesday/main/data/2025/2025-08-05/income_inequality_processed.csv')

2 Data analysis

How many countries?

income_inequality_processed |>
  count(Entity, sort = TRUE)

# A tibble: 52 × 2
   Entity             n
   <chr>          <int>
 1 United States     61
 2 United Kingdom    54
 3 Canada            45
 4 Germany           40
 5 Brazil            38
 6 Luxembourg        37
 7 France            30
 8 Spain             30
 9 Austria           27
10 Sweden            27
# ℹ 42 more rows

How many years?

income_inequality_processed |>
  count(Year, sort = TRUE)

# A tibble: 61 × 2
    Year     n
   <dbl> <int>
 1  2010    41
 2  2016    41
 3  2013    40
 4  2007    37
 5  2015    37
 6  2014    36
 7  2017    36
 8  2018    35
 9  2004    34
10  2011    34
# ℹ 51 more rows
…
