Project Gutenberg – TidyTuesday by Rodrigo
…
tuesdata <- tidytuesdayR::tt_load(2025, week = 22)

gutenberg_authors <- readr::read_csv('https://raw.githubusercontent.com/rfordatascience/tidytuesday/main/data/2025/2025-06-03/gutenberg_authors.csv')
gutenberg_languages <- readr::read_csv('https://raw.githubusercontent.com/rfordatascience/tidytuesday/main/data/2025/2025-06-03/gutenberg_languages.csv')
gutenberg_metadata <- readr::read_csv('https://raw.githubusercontent.com/rfordatascience/tidytuesday/main/data/2025/2025-06-03/gutenberg_metadata.csv')
gutenberg_subjects <- readr::read_csv('https://raw.githubusercontent.com/rfordatascience/tidytuesday/main/data/2025/2025-06-03/gutenberg_subjects.csv')

2 Data analysis

How many types are languages?

gutenberg_languages |> count(language, sort = TRUE)

# A tibble: 70 × 2
   language     n
   <chr>    <int>
 1 en       60693
 2 fr        3973
 3 fi        3313
 4 de        2324
 5 it        1056
 6 nl        1046
 7 es         885
 8 pt         647
 9 hu         609
10 zh         444
# ℹ 60 more rows

How many authors are there?

gutenberg_authors |> count(author, sort = TRUE) 

# A tibble: 25,940 × 2
   author                n
   <chr>             <int>
 1 Hughes, Thomas        4
 2 Smith, George         4
 3 Taylor, Thomas        4
 4 Wilson, John          4
 5 Anderson, William     3
 6 Brown, John           3
 7 Brown, Thomas         3
 8 Butler, Samuel        3
 9 Edwards, Edward       3
10 Fowler, Frank         3
# ℹ 25,930 more rows
…
