API Specs – TidyTuesday by Rodrigo
…
So many NA, why?

api_origins |> filter(format |> is.na()) |> mutate(is_aws = str_detect(name, 'aws'))

# A tibble: 272 × 5
   name                                  format url               version is_aws
   <chr>                                 <chr>  <chr>             <chr>   <lgl> 
 1 amazonaws.com:AWSMigrationHub         <NA>   https://raw.gith… <NA>    TRUE  
 2 amazonaws.com:accessanalyzer          <NA>   https://raw.gith… <NA>    TRUE  
 3 amazonaws.com:acm                     <NA>   https://raw.gith… <NA>    TRUE  
 4 amazonaws.com:acm-pca                 <NA>   https://raw.gith… <NA>    TRUE  
 5 amazonaws.com:alexaforbusiness        <NA>   https://raw.gith… <NA>    TRUE  
 6 amazonaws.com:amp                     <NA>   https://raw.gith… <NA>    TRUE  
 7 amazonaws.com:amplify                 <NA>   https://raw.gith… <NA>    TRUE  
 8 amazonaws.com:amplifybackend          <NA>   https://raw.gith… <NA>    TRUE  
 9 amazonaws.com:apigateway              <NA>   https://raw.gith… <NA>    TRUE  
10 amazonaws.com:apigatewaymanagementapi <NA>   https://raw.gith… <NA>    TRUE  
# ℹ 262 more rows

Most of them are AWS. Let’s add it as a format.

Count how many categories are there

api_categories |> count(name, sort = TRUE) |> filter(n > 1)

# A tibble: 426 × 2
   name                                 n
   <chr>                            <int>
 1 threatjammer.com                     8
 2 neutrinoapi.net                      5
 3 beanstream.com                       3
 4 edrv.io                              3
 5 googleapis.com:my-business           3
 6 slack.com:openai                     3
 7 spectrocoin.com                      3
 8 stackexchange.com                    3
 9 who-hosts-this.com                   3
10 amentum.space:aviation_radiation     2
# ℹ 416 more rows

api_categories |> count(apisguru_category, sort = TRUE)

# A tibble: 42 × 2
   apisguru_category     n
   <chr>             <int>
 1 cloud               955
 2 media               340
 3 open_data           318
 4 analytics           284
 5 developer_tools     168
 6 ecommerce            78
 7 financial            72
 8 messaging            62
 9 entertainment        61
10 telecom              60
# ℹ 32 more rows
…
