Extreme Weather Attribution Studies – TidyTuesday by Rodrigo
…
tuesdata$attribution_studies |> count(study_focus, sort = TRUE)

# A tibble: 2 × 2
  study_focus     n
  <chr>       <int>
1 Event         593
2 Trend         151

2.2 Event period analysis

tuesdata$attribution_studies |> 
  mutate(event_period_numeric = suppressWarnings(as.numeric(event_period))) |>
  count(event_period_numeric,study_focus, sort = TRUE) 

# A tibble: 26 × 3
   event_period_numeric study_focus     n
                  <dbl> <chr>       <int>
 1                   NA Event         266
 2                   NA Trend         151
 3                 2015 Event          31
 4                 2020 Event          31
 5                 2018 Event          30
 6                 2012 Event          27
 7                 2014 Event          26
 8                 2022 Event          23
 9                 2013 Event          20
10                 2017 Event          20
# ℹ 16 more rows

Guess I’ll skip the trends?

2.3 What about the region

tuesdata$attribution_studies |> 
  mutate(event_period_numeric = suppressWarnings(as.numeric(event_period))) |>
  count(event_period_numeric,study_focus,cb_region, sort = TRUE)

# A tibble: 126 × 4
   event_period_numeric study_focus cb_region                          n
                  <dbl> <chr>       <chr>                          <int>
 1                   NA Event       Europe                            73
 2                   NA Event       Eastern and south-eastern Asia    52
 3                   NA Event       Northern America                  50
 4                   NA Trend       Global                            49
 5                   NA Trend       Eastern and south-eastern Asia    30
 6                   NA Event       Australia and New Zealand         27
 7                   NA Event       Sub-Saharan Africa                19
 8                   NA Trend       Northern America                  19
 9                 2020 Event       Eastern and south-eastern Asia    16
10                   NA Trend       Europe                            16
# ℹ 116 more rows
…
