World Food Day – TidyTuesday by Rodrigo
…
There are so much indicators :l (59)

tuesdata$food_security |> distinct(Item)

# A tibble: 69 × 1
   Item                                                                         
   <chr>                                                                        
 1 Average dietary energy supply adequacy (percent) (3-year average)            
 2 Dietary energy supply used in the estimation of the prevalence of undernouri…
 3 Dietary energy supply used in the estimation of the prevalence of undernouri…
 4 Share of dietary energy supply derived from cereals, roots and tubers (perce…
 5 Average protein supply (g/cap/day) (3-year average)                          
 6 Average supply of protein of animal origin (g/cap/day) (3-year average)      
 7 Gross domestic product per capita, PPP, (constant 2021 international $)      
 8 Prevalence of undernourishment (percent) (3-year average)                    
 9 Number of people undernourished (million) (3-year average)                   
10 Prevalence of severe food insecurity in the total population (percent) (3-ye…
# ℹ 59 more rows
…
